{
  "images" : [
    {
      "filename" : "icon_time_machine.pdf",
      "idiom" : "universal"
    }
  ],
  "info" : {
    "author" : "xcode",
    "version" : 1
  },
  "properties" : {
    "preserves-vector-representation" : true
  }
}
